…
整理上述**ec2**数据集，首先需要观察year，
month和rate三个变量。month变量排成了一列，year和rate是宽数据形式，需要使用**gather**函数
把它们转换成长数据格式。在这个例子中，指定**key**为year,
**value**为unemp, 选取2006年到2015年的所有列。

``` r
gather(ec2,key = year, value = unemp, `2006`:`2015`)
```

    # A tibble: 120 × 3
       month year  unemp
       <dbl> <chr> <dbl>
     1     1 2006    8.6
     2     2 2006    9.1
     3     3 2006    8.7
     4     4 2006    8.4
     5     5 2006    8.5
     6     6 2006    7.3
     7     7 2006    8  
     8     8 2006    8.4
     9     9 2006    8  
    10    10 2006    7.9
    # ℹ 110 more rows
…
